/scratch/jmyers10/MB80/user.aagaard.mc15_13TeV.59000.ParticleGenerator_nu_E50_r7022.v5_EXT0/user.aagaard.8990382.EXT0._000001.NTUP.root
/scratch/jmyers10/MB80/user.aagaard.mc15_13TeV.59000.ParticleGenerator_nu_E50_r7022.v5_EXT0/user.aagaard.8990382.EXT0._000002.NTUP.root
/scratch/jmyers10/MB80/user.aagaard.mc15_13TeV.59000.ParticleGenerator_nu_E50_r7022.v5_EXT0/user.aagaard.8990382.EXT0._000003.NTUP.root
/scratch/jmyers10/MB80/user.aagaard.mc15_13TeV.59000.ParticleGenerator_nu_E50_r7022.v5_EXT0/user.aagaard.8990382.EXT0._000004.NTUP.root
/scratch/jmyers10/MB80/user.aagaard.mc15_13TeV.59000.ParticleGenerator_nu_E50_r7022.v5_EXT0/user.aagaard.8990382.EXT0._000005.NTUP.root
/scratch/jmyers10/MB80/user.aagaard.mc15_13TeV.59000.ParticleGenerator_nu_E50_r7022.v5_EXT0/user.aagaard.8990382.EXT0._000006.NTUP.root
/scratch/jmyers10/MB80/user.aagaard.mc15_13TeV.59000.ParticleGenerator_nu_E50_r7022.v5_EXT0/user.aagaard.8990382.EXT0._000007.NTUP.root
/scratch/jmyers10/MB80/user.aagaard.mc15_13TeV.59000.ParticleGenerator_nu_E50_r7022.v5_EXT0/user.aagaard.8990382.EXT0._000008.NTUP.root
/scratch/jmyers10/MB80/user.aagaard.mc15_13TeV.59000.ParticleGenerator_nu_E50_r7022.v5_EXT0/user.aagaard.8990382.EXT0._000009.NTUP.root
/scratch/jmyers10/MB80/user.aagaard.mc15_13TeV.59000.ParticleGenerator_nu_E50_r7022.v5_EXT0/user.aagaard.8990382.EXT0._000010.NTUP.root
/scratch/jmyers10/MB80/user.aagaard.mc15_13TeV.59000.ParticleGenerator_nu_E50_r7022.v5_EXT0/user.aagaard.8990382.EXT0._000038.NTUP.root




